<svg xmlns="http://www.w3.org/2000/svg" width="55" height="39" viewBox="0 0 55 39">
  <metadata><?xpacket begin="﻿" id="W5M0MpCehiHzreSzNTczkc9d"?>
<x:xmpmeta xmlns:x="adobe:ns:meta/" x:xmptk="Adobe XMP Core 5.6-c142 79.160924, 2017/07/13-01:06:39        ">
   <rdf:RDF xmlns:rdf="http://www.w3.org/1999/02/22-rdf-syntax-ns#">
      <rdf:Description rdf:about=""/>
   </rdf:RDF>
</x:xmpmeta>
                                                                                                    
                                                                                                    
                                                                                                    
                                                                                                    
                                                                                                    
                                                                                                    
                                                                                                    
                                                                                                    
                                                                                                    
                                                                                                    
                                                                                                    
                                                                                                    
                                                                                                    
                                                                                                    
                                                                                                    
                                                                                                    
                                                                                                    
                                                                                                    
                                                                                                    
                                                                                                    
                           
<?xpacket end="w"?></metadata>
<defs>
    <style>
      .cls-1 {
        fill: #fff;
        fill-rule: evenodd;
      }
    </style>
  </defs>
  <path class="cls-1" d="M41.746,10.963H35.772v-3.3A0.671,0.671,0,0,0,35.093,7H20.907a0.671,0.671,0,0,0-.678.664v3.3H14.254A2.233,2.233,0,0,0,12,13.169v10.57a2.233,2.233,0,0,0,2.254,2.206h5.974v6.392a0.671,0.671,0,0,0,.678.664H35.093a0.671,0.671,0,0,0,.679-0.664V25.944h5.974A2.233,2.233,0,0,0,44,23.739V13.169A2.233,2.233,0,0,0,41.746,10.963Zm-5.974,1.328H37.39v1.858H35.772V12.291ZM21.585,8.328h12.83v5.821H21.585V8.328ZM18.61,12.291h1.619v1.858H18.61V12.291ZM34.415,31.672H21.585V22.928h12.83v8.744h0Zm8.228-7.933h0a0.889,0.889,0,0,1-.9.878H35.772V22.928H37.01a0.664,0.664,0,1,0,0-1.328H18.99a0.664,0.664,0,1,0,0,1.328h1.238v1.688H14.254a0.889,0.889,0,0,1-.9-0.878V13.169a0.889,0.889,0,0,1,.9-0.878h3v2.522a0.672,0.672,0,0,0,.679.664H38.069a0.671,0.671,0,0,0,.678-0.664V12.291h3a0.889,0.889,0,0,1,.9.878v10.57ZM16.3,16.921a0.832,0.832,0,1,1-.85.832A0.841,0.841,0,0,1,16.3,16.921ZM27.8,27.978H24.636a0.664,0.664,0,1,0,0,1.328H27.8A0.664,0.664,0,1,0,27.8,27.978Zm3.561-3.362H24.636a0.664,0.664,0,1,0,0,1.328h6.729A0.664,0.664,0,1,0,31.364,24.616Z"/>
  <path class="cls-1" d="M102.863,13.036L96.374,6.153A0.485,0.485,0,0,0,96.021,6H86.351a1.986,1.986,0,0,0-1.963,2v7H80.468A1.486,1.486,0,0,0,79,16.5V24a1.486,1.486,0,0,0,1.469,1.5h3.919V30a1.984,1.984,0,0,0,1.963,2h14.687A1.983,1.983,0,0,0,103,30V13.383A0.505,0.505,0,0,0,102.863,13.036ZM96.143,7.35L101.469,13H96.143V7.35ZM80.468,24.5A0.494,0.494,0,0,1,79.98,24V16.5a0.494,0.494,0,0,1,.489-0.5H93.695a0.494,0.494,0,0,1,.489.5V24a0.494,0.494,0,0,1-.489.5H80.468ZM102.02,30a0.992,0.992,0,0,1-.983,1H86.351a0.992,0.992,0,0,1-.983-1V25.5h8.327A1.485,1.485,0,0,0,95.163,24V16.5A1.485,1.485,0,0,0,93.695,15H85.367V8a0.994,0.994,0,0,1,.983-1h8.813v6.5a0.5,0.5,0,0,0,.49.5h6.367V30h0ZM84.856,18.69a1.1,1.1,0,0,0-.606-0.42,4.842,4.842,0,0,0-1.01-.065H81.877v4.3h0.85V20.88H83.28a4.755,4.755,0,0,0,.881-0.061,1.218,1.218,0,0,0,.441-0.2,1.171,1.171,0,0,0,.357-0.423,1.427,1.427,0,0,0,.141-0.665A1.353,1.353,0,0,0,84.856,18.69Zm-0.728,1.182a0.561,0.561,0,0,1-.266.211,2.156,2.156,0,0,1-.672.067H82.726V18.932h0.41a3.992,3.992,0,0,1,.611.029,0.584,0.584,0,0,1,.342.191,0.562,0.562,0,0,1,.135.387A0.587,0.587,0,0,1,84.128,19.872Zm5.055-.494a1.885,1.885,0,0,0-.4-0.7,1.4,1.4,0,0,0-.634-0.4,2.973,2.973,0,0,0-.8-0.082H85.794v4.3h1.6a2.52,2.52,0,0,0,.752-0.091,1.485,1.485,0,0,0,.6-0.343,1.9,1.9,0,0,0,.451-0.759,2.878,2.878,0,0,0,.129-0.914A3.232,3.232,0,0,0,89.183,19.378Zm-0.827,1.764a0.914,0.914,0,0,1-.222.415,0.779,0.779,0,0,1-.343.179,2.272,2.272,0,0,1-.514.041H86.643V18.932h0.382a3.779,3.779,0,0,1,.7.041,0.8,0.8,0,0,1,.393.2,0.988,0.988,0,0,1,.241.416,2.616,2.616,0,0,1,.086.765A2.858,2.858,0,0,1,88.357,21.142Zm4.575-2.21V18.2H90.047v4.3H90.9V20.675h1.756V19.948H90.9V18.932h2.035Z"/>
  <path class="cls-1" d="M167.98,16.784a1.216,1.216,0,0,0-.356-0.863,1.2,1.2,0,0,0-.857-0.356h0l-24.553.034a1.2,1.2,0,0,0-.857.359,1.218,1.218,0,0,0-.355.864l0.02,13.96A1.217,1.217,0,0,0,142.233,32h0l24.553-.034a1.2,1.2,0,0,0,.857-0.359A1.213,1.213,0,0,0,168,30.744Zm-2.547,0L154.5,24.434l-10.954-7.616Zm-6.374,8.872,6.52,5.088-22.176.031,6.559-5.119a0.612,0.612,0,0,0,.107-0.856,0.6,0.6,0,0,0-.851-0.108l-6.986,5.452-0.017-12.771,11.942,8.3a0.6,0.6,0,0,0,.691,0l11.92-8.337,0.018,12.8L159.8,24.694a0.605,0.605,0,0,0-.852.108A0.613,0.613,0,0,0,159.059,25.659ZM157.374,9.213l-2.207-1.984a1,1,0,0,0-1.335,0l-2.207,1.984a0.614,0.614,0,0,0-.048.862,0.6,0.6,0,0,0,.857.049l1.459-1.312v4.7a0.607,0.607,0,1,0,1.213,0v-4.7l1.46,1.312a0.6,0.6,0,0,0,.856-0.049A0.612,0.612,0,0,0,157.374,9.213Z"/>
</svg>
