<svg xmlns="http://www.w3.org/2000/svg" width="50" height="41" viewBox="0 0 50 41">
  <metadata><?xpacket begin="﻿" id="W5M0MpCehiHzreSzNTczkc9d"?>
<x:xmpmeta xmlns:x="adobe:ns:meta/" x:xmptk="Adobe XMP Core 5.6-c142 79.160924, 2017/07/13-01:06:39        ">
   <rdf:RDF xmlns:rdf="http://www.w3.org/1999/02/22-rdf-syntax-ns#">
      <rdf:Description rdf:about=""/>
   </rdf:RDF>
</x:xmpmeta>
                                                                                                    
                                                                                                    
                                                                                                    
                                                                                                    
                                                                                                    
                                                                                                    
                                                                                                    
                                                                                                    
                                                                                                    
                                                                                                    
                                                                                                    
                                                                                                    
                                                                                                    
                                                                                                    
                                                                                                    
                                                                                                    
                                                                                                    
                                                                                                    
                                                                                                    
                                                                                                    
                           
<?xpacket end="w"?></metadata>
<defs>
    <style>
      .cls-1 {
        fill: #fff;
        fill-rule: evenodd;
      }
    </style>
  </defs>
  <path class="cls-1" d="M-87.254,9.963h-5.974v-3.3A0.671,0.671,0,0,0-93.907,6h-14.186a0.672,0.672,0,0,0-.679.664v3.3h-5.974A2.233,2.233,0,0,0-117,12.169v10.57a2.233,2.233,0,0,0,2.254,2.206h5.974v6.392a0.672,0.672,0,0,0,.679.664h14.186a0.671,0.671,0,0,0,.679-0.664V24.944h5.974A2.233,2.233,0,0,0-85,22.739V12.169A2.233,2.233,0,0,0-87.254,9.963Zm-5.974,1.328h1.619v1.858h-1.619V11.291Zm-14.187-3.963h12.83v5.821h-12.83V7.328Zm-2.975,3.963h1.618v1.858h-1.618V11.291Zm15.8,19.381h-12.83V21.928h12.83v8.744h0Zm8.228-7.933h0a0.889,0.889,0,0,1-.9.878h-5.974V21.928h1.238a0.672,0.672,0,0,0,.679-0.664A0.672,0.672,0,0,0-91.99,20.6h-18.02a0.671,0.671,0,0,0-.678.664,0.671,0.671,0,0,0,.678.664h1.238v1.688h-5.974a0.888,0.888,0,0,1-.9-0.878V12.169a0.888,0.888,0,0,1,.9-0.878h3v2.522a0.672,0.672,0,0,0,.679.664h20.138a0.671,0.671,0,0,0,.678-0.664V11.291h3a0.889,0.889,0,0,1,.9.878v10.57ZM-112.7,15.921a0.841,0.841,0,0,1,.85.832,0.841,0.841,0,0,1-.85.832,0.841,0.841,0,0,1-.85-0.832A0.841,0.841,0,0,1-112.7,15.921Zm11.5,11.057h-3.168a0.671,0.671,0,0,0-.678.664,0.671,0.671,0,0,0,.678.664h3.168a0.672,0.672,0,0,0,.679-0.664A0.672,0.672,0,0,0-101.2,26.978Zm3.561-3.362h-6.729a0.671,0.671,0,0,0-.678.664,0.671,0.671,0,0,0,.678.664h6.729a0.671,0.671,0,0,0,.678-0.664A0.671,0.671,0,0,0-97.636,23.616Z"/>
  <path class="cls-1" d="M-26.137,12.036l-6.489-6.883A0.485,0.485,0,0,0-32.979,5h-9.671a1.986,1.986,0,0,0-1.963,2v7h-3.919A1.486,1.486,0,0,0-50,15.5V23a1.486,1.486,0,0,0,1.469,1.5h3.919V29a1.984,1.984,0,0,0,1.963,2h14.687A1.983,1.983,0,0,0-26,29V12.383A0.506,0.506,0,0,0-26.137,12.036Zm-6.72-5.686L-27.53,12h-5.327V6.35ZM-48.532,23.5A0.494,0.494,0,0,1-49.02,23V15.5a0.494,0.494,0,0,1,.489-0.5h13.226a0.494,0.494,0,0,1,.489.5V23a0.494,0.494,0,0,1-.489.5H-48.532ZM-26.98,29a0.992,0.992,0,0,1-.983,1H-42.649a0.992,0.992,0,0,1-.983-1V24.5h8.327A1.485,1.485,0,0,0-33.837,23V15.5A1.485,1.485,0,0,0-35.305,14h-8.327V7a0.994,0.994,0,0,1,.983-1h8.813v6.5a0.5,0.5,0,0,0,.49.5h6.367V29h0ZM-44.144,17.69a1.1,1.1,0,0,0-.605-0.42,4.842,4.842,0,0,0-1.01-.065h-1.363v4.3h0.849V19.88h0.554a4.755,4.755,0,0,0,.881-0.061,1.218,1.218,0,0,0,.441-0.2,1.171,1.171,0,0,0,.357-0.423,1.427,1.427,0,0,0,.141-0.665A1.353,1.353,0,0,0-44.144,17.69Zm-0.727,1.182a0.561,0.561,0,0,1-.266.211,2.156,2.156,0,0,1-.672.067h-0.465V17.932h0.41a3.992,3.992,0,0,1,.611.029,0.584,0.584,0,0,1,.341.191,0.562,0.562,0,0,1,.135.387A0.587,0.587,0,0,1-44.872,18.872Zm5.055-.494a1.885,1.885,0,0,0-.4-0.7,1.4,1.4,0,0,0-.634-0.4,2.973,2.973,0,0,0-.8-0.082h-1.553v4.3h1.6a2.52,2.52,0,0,0,.752-0.091,1.485,1.485,0,0,0,.6-0.343,1.9,1.9,0,0,0,.451-0.759,2.878,2.878,0,0,0,.129-0.914A3.232,3.232,0,0,0-39.817,18.378Zm-0.827,1.764a0.914,0.914,0,0,1-.222.415,0.779,0.779,0,0,1-.343.179,2.272,2.272,0,0,1-.514.041h-0.634V17.932h0.382a3.779,3.779,0,0,1,.7.041,0.8,0.8,0,0,1,.393.2,0.988,0.988,0,0,1,.241.416,2.616,2.616,0,0,1,.086.765A2.858,2.858,0,0,1-40.643,20.142Zm4.575-2.21V17.2h-2.884v4.3H-38.1V19.675h1.756V18.948H-38.1V17.932h2.035Z"/>
  <path class="cls-1" d="M38.98,15.784a1.216,1.216,0,0,0-.357-0.863,1.2,1.2,0,0,0-.857-0.356h0L13.212,14.6a1.2,1.2,0,0,0-.857.359,1.216,1.216,0,0,0-.354.864l0.019,13.96A1.218,1.218,0,0,0,13.233,31h0l24.553-.034a1.2,1.2,0,0,0,.858-0.359A1.216,1.216,0,0,0,39,29.744Zm-2.547,0L25.5,23.434,14.547,15.817Zm-6.375,8.872,6.52,5.088L14.4,29.778l6.559-5.119a0.613,0.613,0,0,0,.107-0.856,0.6,0.6,0,0,0-.851-0.108l-6.986,5.452L13.215,16.375l11.943,8.3a0.6,0.6,0,0,0,.691,0l11.919-8.337,0.018,12.8L30.8,23.694a0.6,0.6,0,0,0-.851.108A0.613,0.613,0,0,0,30.059,24.659ZM28.374,8.213L26.167,6.229a1,1,0,0,0-1.335,0L22.625,8.213a0.613,0.613,0,0,0-.048.862,0.6,0.6,0,0,0,.857.049l1.459-1.312v4.7a0.607,0.607,0,1,0,1.213,0v-4.7l1.459,1.312a0.6,0.6,0,0,0,.857-0.049A0.613,0.613,0,0,0,28.374,8.213Z"/>
</svg>
