<svg xmlns="http://www.w3.org/2000/svg" width="71" height="73" viewBox="0 0 71 73">
  <metadata><?xpacket begin="﻿" id="W5M0MpCehiHzreSzNTczkc9d"?>
<x:xmpmeta xmlns:x="adobe:ns:meta/" x:xmptk="Adobe XMP Core 5.6-c142 79.160924, 2017/07/13-01:06:39        ">
   <rdf:RDF xmlns:rdf="http://www.w3.org/1999/02/22-rdf-syntax-ns#">
      <rdf:Description rdf:about=""/>
   </rdf:RDF>
</x:xmpmeta>
                                                                                                    
                                                                                                    
                                                                                                    
                                                                                                    
                                                                                                    
                                                                                                    
                                                                                                    
                                                                                                    
                                                                                                    
                                                                                                    
                                                                                                    
                                                                                                    
                                                                                                    
                                                                                                    
                                                                                                    
                                                                                                    
                                                                                                    
                                                                                                    
                                                                                                    
                                                                                                    
                           
<?xpacket end="w"?></metadata>
<defs>
    <style>
      .cls-1 {
        fill: none;
        stroke: #fff;
        stroke-width: 1px;
        fill-rule: evenodd;
      }
    </style>
  </defs>
  <path id="Forma_1" data-name="Forma 1" class="cls-1" d="M35.92,67l4.09-8.724-8.02.012ZM13,18V56.238H59V18H13ZM56.014,53.2H15.984V21.036h40.03V53.2h0ZM26.078,35.963L20.7,41.643v9.584a0.485,0.485,0,0,0,.481.489H27.71a0.486,0.486,0,0,0,.481-0.489v-14.7l-1.5-.562H26.078Zm13.289,4.455H32.843a0.485,0.485,0,0,0-.482.489V51.228a0.485,0.485,0,0,0,.482.489h6.524a0.484,0.484,0,0,0,.481-0.489V40.906A0.484,0.484,0,0,0,39.367,40.418ZM48.85,29.9L47.664,28.9l-4.287,4.752V51.227a0.485,0.485,0,0,0,.481.489h6.524a0.485,0.485,0,0,0,.482-0.489V30.065c-0.026.016-.051,0.035-0.079,0.049A1.73,1.73,0,0,1,48.85,29.9ZM19.111,40.911a0.953,0.953,0,0,0,.694-0.3l6.141-6.492,10.745,4.016a0.954,0.954,0,0,0,1.042-.257l9.894-10.965,2.316,1.966a0.36,0.36,0,0,0,.4.044,0.372,0.372,0,0,0,.194-0.361l-0.5-5.7a0.365,0.365,0,0,0-.395-0.335l-5.612.509a0.366,0.366,0,0,0-.315.258,0.377,0.377,0,0,0-.014.143,0.37,0.37,0,0,0,.128.251l2.32,1.97-9.4,10.416-10.73-4.011a0.956,0.956,0,0,0-1.027.24l-6.577,6.953a0.988,0.988,0,0,0,.027,1.382A0.949,0.949,0,0,0,19.111,40.911Z"/>
</svg>
