<?xml version="1.0" encoding="utf-8"?>
<!-- Generator: Adobe Illustrator 22.0.1, SVG Export Plug-In . SVG Version: 6.00 Build 0)  -->
<svg version="1.1" id="Layer_1" xmlns="http://www.w3.org/2000/svg" xmlns:xlink="http://www.w3.org/1999/xlink" x="0px" y="0px"
	 viewBox="0 0 1873 629" style="enable-background:new 0 0 1873 629;" xml:space="preserve">
<style type="text/css">
	.st0{fill:#FFFFFF;}
	.st1{fill:#FFFFFF;}
	.st2{fill:#FFFFFF;}
</style>
<path class="st0" d="M119.1,114.1H-1L17.2,0.5h366.9l-18.3,113.6H245.7L187,485.6H60.3L119.1,114.1z"/>
<path class="st0" d="M425.8,0.5h190.6c47,0,82.3,10.2,105.8,30.7c23.5,20.5,35.3,52.4,35.3,96c0,13.1-1.3,27.4-3.9,43.1
	c-3.9,26.6-11,48.4-21.2,65.6c-10.2,17.2-20.6,29.9-31,38.2c-10.4,8.3-22.2,16.1-35.3,23.5l54.2,188H591.6l-41.1-167.1h-48.3
	l-26.8,167.1H348.7L425.8,0.5z M570.7,217.9c19.1,0,32.4-4.1,39.8-12.4c7.4-8.3,12.6-22.4,15.7-42.4c0.9-4.3,1.3-10.2,1.3-17.6
	c0-10.4-2.8-18.3-8.5-23.5c-5.7-5.2-15-7.8-28.1-7.8h-56.8l-16.3,103.8H570.7z"/>
<g>
	<polygon class="st1" points="1542.3,116.9 1562.4,0.5 1292.2,0.5 1252.2,116.9 	"/>
	<polygon class="st1" points="1515,300.9 1535,184.5 1229,184.5 1189,300.9 	"/>
	<polygon class="st1" points="1487.6,484.9 1507.7,368.5 1165.8,368.5 1125.9,484.9 	"/>
</g>
<g>
	<polygon class="st2" points="837.9,0.5 817.8,116.9 1184.8,116.9 1226.5,0.5 	"/>
	<polygon class="st2" points="810.5,184.5 790.5,300.9 1119,300.9 1160.6,184.5 	"/>
	<polygon class="st2" points="783.2,368.5 763.1,484.9 1053.1,484.9 1094.8,368.5 	"/>
</g>
<path class="st0" d="M1756.9,372l0,0.1h-58.4l5.2-32.9c0.1-0.4,0.1-0.8,0.2-1.2l6.2-39.4l0.1-0.4h0l47.2-297.7h-126.6l-49.9,315.1
	l-0.9,5.5l0,0l-27.1,161.3l-0.5,3.1h124h31.4h147.5l18.3-113.6H1756.9z"/>
<path class="st0" d="M336.4,543.8h32c12.9,0,19.3,6.5,19.3,19.4c0,1.5-0.3,4.3-0.8,8.2c-1.5,9.4-4.6,16.1-9.4,20
	c-4.8,3.9-10.4,5.9-16.7,5.9c-7.7,0-15.5-0.4-23.6-1.3l-5.2,32.4H323L336.4,543.8z M360,589c10,0,16-6.2,17.9-18.5
	c0.5-3.1,0.7-5.2,0.7-6.5c0-4.2-1-7.3-3-9.1c-2-1.9-5-2.8-8.9-2.8h-22.5l-5.9,37H360z"/>
<path class="st0" d="M405.3,543.8H436c6,0,10.9,1.5,14.7,4.4c3.8,3,5.7,7.9,5.7,15c0,2.1-0.2,4.4-0.7,6.9
	c-1.2,7.8-3.6,13.3-7.1,16.4c-3.5,3.1-7.5,5-11.8,5.8l11.5,36.1h-9.2l-10.8-34.8c-7,0-14.2-0.1-21.7-0.5l-5.6,35.2h-9.1L405.3,543.8
	z M429.4,586.2c4.7,0,8.4-1.2,11.3-3.5c2.9-2.3,4.8-6.7,5.8-13.3c0.3-1.6,0.5-3.3,0.5-4.9c0-8.3-4.2-12.4-12.7-12.4H413l-5.4,34.1
	H429.4z"/>
<path class="st0" d="M469.3,626.1c-2.9-1.9-4.4-5.3-4.4-10.1c0-1.3,0.1-2.7,0.3-4.1l8.1-51.3c1-6,3.2-10.3,6.7-12.9
	c3.5-2.6,7.7-3.9,12.7-3.9c11,0.2,22.5,0.6,34.4,1l-1.3,7.4h-32.3c-3.3,0-5.9,0.8-7.8,2.5c-1.9,1.7-3.2,4.3-3.8,8.1l-3,19.3l37,0.9
	l-1.1,7l-37.2,0.5l-3.1,19.9c-0.2,1.4-0.2,2.3-0.2,2.9c0,2.8,0.8,4.8,2.4,5.8c1.6,1,3.9,1.6,7,1.6h31.5l-1.1,7.3l-7.8,0.3
	c-1.5,0.1-5.1,0.2-10.6,0.5c-5.5,0.2-10.8,0.3-15.7,0.3C475.8,629,472.3,628,469.3,626.1z"/>
<path class="st0" d="M542.5,543.8h30.3c9.6,0,16.4,2.5,20.4,7.4c3.9,4.9,5.9,12.2,5.9,22c0,4.4-0.5,9.3-1.4,14.8
	c-4.1,26.9-16.8,40.3-38,40.3h-30.7L542.5,543.8z M560.4,620.2c15.4,0,24.8-11.4,28.4-34.1c0.8-5.3,1.3-9.5,1.3-12.7
	c0-7.4-1.4-12.7-4.3-16.1c-2.9-3.4-7.9-5.1-15.1-5.1h-20.4l-10.8,68.1H560.4z"/>
<path class="st0" d="M619.9,543.8h9.1l-13.4,84.5h-9.1L619.9,543.8z"/>
<path class="st0" d="M641.7,622.3c-3.9-4.5-5.9-11.1-5.9-19.9c0-5.1,0.6-11.1,1.7-18c2.1-13.8,5.9-24.1,11.3-30.9
	c5.4-6.8,13-10.3,23.1-10.3c5.2,0,9.7,0.3,13.6,1c3.9,0.7,7.9,1.5,12.2,2.6l-1.3,7c-8-1.5-15.8-2.3-23.4-2.3
	c-5.1,0-9.3,1.1-12.6,3.4c-3.4,2.3-6.2,6-8.4,11c-2.2,5.1-4.1,11.9-5.5,20.4c-1.1,7.2-1.6,12.6-1.6,16.1c0,6.5,1.3,11.2,4,14.1
	c2.7,2.9,7.2,4.4,13.5,4.4c5.2,0,9.5-0.1,13-0.3c3.4-0.2,7-0.6,10.6-1.1l-1.1,6.9c-6.7,1.8-14.9,2.8-24.7,2.8
	C651.8,629,645.7,626.8,641.7,622.3z"/>
<path class="st0" d="M733.2,552.1h-26.5l1.3-8.3h62.2l-1.4,8.3h-26.5l-12.1,76.2h-9.1L733.2,552.1z"/>
<path class="st0" d="M762.7,626.9v-0.3l1.4-9.2c0.2-1.2,1-1.8,2.2-1.8h5c1.1,0,1.6,0.5,1.6,1.4v0.5l-1.5,9.2c-0.2,1.2-1,1.8-2.2,1.8
	h-5.1C763.2,628.4,762.7,627.9,762.7,626.9z"/>
<path class="st0" d="M827.3,543.8h32c12.9,0,19.3,6.5,19.3,19.4c0,1.5-0.3,4.3-0.8,8.2c-1.5,9.4-4.6,16.1-9.4,20
	c-4.8,3.9-10.4,5.9-16.7,5.9c-7.7,0-15.5-0.4-23.6-1.3l-5.2,32.4h-9.1L827.3,543.8z M850.9,589c10,0,16-6.2,17.9-18.5
	c0.5-3.1,0.7-5.2,0.7-6.5c0-4.2-1-7.3-3-9.1c-2-1.9-5-2.8-8.9-2.8H835l-5.9,37H850.9z"/>
<path class="st0" d="M896.2,543.8h30.7c6,0,10.9,1.5,14.7,4.4c3.8,3,5.7,7.9,5.7,15c0,2.1-0.2,4.4-0.7,6.9
	c-1.2,7.8-3.6,13.3-7.1,16.4c-3.5,3.1-7.5,5-11.8,5.8l11.5,36.1H930l-10.8-34.8c-7,0-14.2-0.1-21.7-0.5l-5.6,35.2h-9.1L896.2,543.8z
	 M920.3,586.2c4.7,0,8.4-1.2,11.3-3.5c2.9-2.3,4.8-6.7,5.8-13.3c0.3-1.6,0.5-3.3,0.5-4.9c0-8.3-4.2-12.4-12.7-12.4h-21.2l-5.4,34.1
	H920.3z"/>
<path class="st0" d="M960.2,626.1c-2.9-1.9-4.4-5.3-4.4-10.1c0-1.3,0.1-2.7,0.3-4.1l8.2-51.3c1-6,3.2-10.3,6.7-12.9
	c3.5-2.6,7.7-3.9,12.7-3.9c11,0.2,22.5,0.6,34.4,1l-1.3,7.4h-32.3c-3.3,0-5.9,0.8-7.8,2.5c-1.9,1.7-3.2,4.3-3.8,8.1l-3,19.3l37,0.9
	l-1.1,7l-37.2,0.5l-3.1,19.9c-0.2,1.4-0.2,2.3-0.2,2.9c0,2.8,0.8,4.8,2.4,5.8c1.6,1,3.9,1.6,7,1.6h31.5l-1.1,7.3l-7.8,0.3
	c-1.5,0.1-5.1,0.2-10.6,0.5c-5.5,0.2-10.8,0.3-15.7,0.3C966.7,629,963.1,628,960.2,626.1z"/>
<path class="st0" d="M1029.1,543.8h9.4l13.1,74.6l37.7-74.6h9.4l-42.8,84.5h-11.7L1029.1,543.8z"/>
<path class="st0" d="M1101.3,626.1c-2.9-1.9-4.4-5.3-4.4-10.1c0-1.3,0.1-2.7,0.3-4.1l8.2-51.3c1-6,3.2-10.3,6.7-12.9
	c3.5-2.6,7.7-3.9,12.7-3.9c11,0.2,22.5,0.6,34.4,1l-1.3,7.4h-32.3c-3.3,0-5.9,0.8-7.8,2.5c-1.9,1.7-3.2,4.3-3.8,8.1l-3,19.3l37,0.9
	l-1.1,7l-37.2,0.5l-3.1,19.9c-0.2,1.4-0.2,2.3-0.2,2.9c0,2.8,0.8,4.8,2.4,5.8c1.6,1,3.9,1.6,7,1.6h31.5l-1.1,7.3l-7.8,0.3
	c-1.5,0.1-5.1,0.2-10.6,0.5c-5.5,0.2-10.8,0.3-15.7,0.3C1107.8,629,1104.2,628,1101.3,626.1z"/>
<path class="st0" d="M1174.5,543.8h7.4l33.2,69l10.9-69h9.2l-13.4,84.5h-7.5l-33.1-69.1l-11,69.1h-9.1L1174.5,543.8z"/>
<path class="st0" d="M1271.3,552.1h-26.5l1.3-8.3h62.2l-1.4,8.3h-26.5l-12.1,76.2h-9.1L1271.3,552.1z"/>
<path class="st0" d="M1300.8,626.9v-0.3l1.4-9.2c0.2-1.2,1-1.8,2.2-1.8h5.1c1.1,0,1.6,0.5,1.6,1.4v0.5l-1.5,9.2
	c-0.2,1.2-1,1.8-2.2,1.8h-5.1C1301.3,628.4,1300.8,627.9,1300.8,626.9z"/>
<path class="st0" d="M1365.4,543.8h32c12.9,0,19.3,6.5,19.3,19.4c0,1.5-0.3,4.3-0.8,8.2c-1.5,9.4-4.6,16.1-9.4,20
	c-4.8,3.9-10.4,5.9-16.7,5.9c-7.6,0-15.5-0.4-23.6-1.3l-5.2,32.4h-9.1L1365.4,543.8z M1388.9,589c10,0,16-6.2,17.9-18.5
	c0.5-3.1,0.7-5.2,0.7-6.5c0-4.2-1-7.3-3-9.1c-2-1.9-5-2.8-8.9-2.8h-22.5l-5.9,37H1388.9z"/>
<path class="st0" d="M1434.3,543.8h30.7c6,0,10.9,1.5,14.7,4.4c3.8,3,5.7,7.9,5.7,15c0,2.1-0.2,4.4-0.7,6.9
	c-1.2,7.8-3.6,13.3-7.1,16.4c-3.5,3.1-7.5,5-11.8,5.8l11.5,36.1h-9.2l-10.8-34.8c-7,0-14.2-0.1-21.7-0.5l-5.6,35.2h-9.1
	L1434.3,543.8z M1458.4,586.2c4.7,0,8.4-1.2,11.3-3.5c2.9-2.3,4.8-6.7,5.8-13.3c0.3-1.6,0.5-3.3,0.5-4.9c0-8.3-4.2-12.4-12.7-12.4
	H1442l-5.4,34.1H1458.4z"/>
<path class="st0" d="M1507.5,627c-3.9-1.3-7-3.8-9.1-7.5c-2.1-3.6-3.2-8.8-3.2-15.6c0-5.4,0.6-11.7,1.7-19.1
	c1.8-11.1,4.3-19.6,7.5-25.7c3.2-6,7.3-10.2,12.3-12.6c5-2.4,11.5-3.6,19.6-3.6c5.9,0,10.8,0.8,14.8,2.2c4,1.5,7.1,4.2,9.2,8
	c2.2,3.8,3.3,9.1,3.3,16c0,4.9-0.6,11.3-1.8,19.1c-1.8,11.1-4.3,19.6-7.5,25.4c-3.2,5.9-7.4,9.9-12.3,12c-5,2.1-11.4,3.2-19.4,3.2
	C1516.4,629,1511.4,628.3,1507.5,627z M1538.3,618c3.6-1.8,6.5-5.2,8.8-10c2.3-4.9,4.2-11.9,5.6-21.1c1.1-7,1.7-12.9,1.7-17.6
	c0-4.9-0.7-8.6-2.2-11.2c-1.5-2.6-3.6-4.3-6.4-5.3s-6.4-1.4-11-1.4c-5.8,0-10.5,0.9-14.1,2.8c-3.6,1.9-6.6,5.3-9,10.3
	c-2.4,5-4.3,12.3-5.9,21.9c-1.1,7.7-1.7,13.4-1.7,17.2c0,4.7,0.7,8.2,2.1,10.7c1.4,2.4,3.5,4.1,6.3,5.1c2.8,0.9,6.6,1.4,11.4,1.4
	C1530,620.7,1534.8,619.8,1538.3,618z"/>
<path class="st0" d="M1603.3,552.1h-26.5l1.3-8.3h62.2l-1.4,8.3h-26.5l-12.1,76.2h-9.1L1603.3,552.1z"/>
<path class="st0" d="M1644.8,626.1c-2.9-1.9-4.4-5.3-4.4-10.1c0-1.3,0.1-2.7,0.3-4.1l8.2-51.3c1-6,3.2-10.3,6.7-12.9
	c3.5-2.6,7.7-3.9,12.7-3.9c11,0.2,22.5,0.6,34.4,1l-1.3,7.4h-32.3c-3.3,0-5.9,0.8-7.8,2.5c-1.9,1.7-3.2,4.3-3.8,8.1l-3,19.3l37,0.9
	l-1.1,7l-37.2,0.5l-3.1,19.9c-0.2,1.4-0.2,2.3-0.2,2.9c0,2.8,0.8,4.8,2.4,5.8c1.6,1,3.9,1.6,7,1.6h31.5l-1.1,7.3l-7.8,0.3
	c-1.5,0.1-5.1,0.2-10.6,0.5c-5.5,0.2-10.8,0.3-15.7,0.3C1651.3,629,1647.7,628,1644.8,626.1z"/>
<path class="st0" d="M1714.2,622.3c-3.9-4.5-5.9-11.1-5.9-19.9c0-5.1,0.6-11.1,1.7-18c2.1-13.8,5.9-24.1,11.2-30.9
	c5.4-6.8,13-10.3,23.1-10.3c5.2,0,9.7,0.3,13.6,1c3.9,0.7,7.9,1.5,12.2,2.6l-1.3,7c-8-1.5-15.8-2.3-23.4-2.3
	c-5.1,0-9.3,1.1-12.6,3.4c-3.4,2.3-6.2,6-8.4,11c-2.2,5.1-4.1,11.9-5.5,20.4c-1.1,7.2-1.6,12.6-1.6,16.1c0,6.5,1.3,11.2,4,14.1
	c2.7,2.9,7.2,4.4,13.6,4.4c5.2,0,9.5-0.1,13-0.3c3.4-0.2,7-0.6,10.6-1.1l-1.1,6.9c-6.7,1.8-14.9,2.8-24.7,2.8
	C1724.3,629,1718.2,626.8,1714.2,622.3z"/>
<path class="st0" d="M1805.7,552.1h-26.5l1.3-8.3h62.2l-1.4,8.3h-26.5l-12.1,76.2h-9.1L1805.7,552.1z"/>
<path class="st0" d="M1835.2,626.9v-0.3l1.4-9.2c0.2-1.2,1-1.8,2.2-1.8h5.1c1.1,0,1.6,0.5,1.6,1.4v0.5l-1.5,9.2
	c-0.2,1.2-1,1.8-2.2,1.8h-5.1C1835.7,628.4,1835.2,627.9,1835.2,626.9z"/>
</svg>
